PSYC166 - Examining Relationships in Variables of Cognition
…
You see that var1 and var2 are measured repeatedly at each time. Some individuals have data for one, two, or three time points. In order to correlate the var1 or var2 performance across the different time points, the data need to be arranged as columns in the data frame.

Pivot Wide

Pivot the data frame to take the levels of time to create new column variables by taking the values from the var1 and var2.

(WIDE <-
  LONG |>
  tidyr::pivot_wider( 
    names_from  = time,            # the measurement time variable
    values_from = c(var1, var2)    # two types of variables measured
  )
)

# A tibble: 576 × 8
   id    group var1_1 var1_2 var1_3 var2_1 var2_2 var2_3
   <chr> <chr>  <dbl>  <dbl>  <dbl>  <dbl>  <dbl>  <dbl>
 1 AQAFS A         25     NA     NA     32     NA     NA
 2 AQAMF A          8     NA     NA     16     NA     NA
 3 AQAMS A         19     24      9     27     33     19
 4 AQAQQ A         28     NA     19     37     NA     22
 5 AQAQP A         37     32     30     41     40     39
 6 AQAYR A         28     42     28     34     42     36
 7 AQASY A         18     18     NA     29     24     NA
 8 AQARM A          0     NA      4      0     NA      8
 9 AQFAF A          9     11     NA     20     16     NA
10 AQFJA A         21      8      7     31     19     21
# ℹ 566 more rows
…
